1. Summary
Meeting title	LEX Workshop
Attended participants	1
Start time	5/25/22, 10:29:51 AM
End time	5/25/22, 10:30:06 AM
Meeting duration	15s
Average attendance time	10s

2. Participants
Name	First join	Last leave	In-meeting duration	Email	Participant ID (UPN)	Role
Maria Marquina Guevara	5/25/22, 10:29:56 AM	5/25/22, 10:30:06 AM	10s	Maria.Marquina@fundacion-jala.org	Maria.Marquina@fundacion-jala.org	Organizer

3. In-Meeting activities
Name	Join time	Leave time	Duration	Email	Role
Maria Marquina Guevara	5/25/22, 10:29:56 AM	5/25/22, 10:30:06 AM	10s	Maria.Marquina@fundacion-jala.org	Organizer
